%YAML 1.1
%TAG !u! tag:unity3d.com,2011:
--- !u!1001 &100100000
Prefab:
  m_ObjectHideFlags: 1
  serializedVersion: 2
  m_Modification:
    m_TransformParent: {fileID: 0}
    m_Modifications: []
    m_RemovedComponents: []
  m_ParentPrefab: {fileID: 0}
  m_RootGameObject: {fileID: 1516453202568754}
  m_IsPrefabParent: 1
--- !u!1 &1516453202568754
GameObject:
  m_ObjectHideFlags: 0
  m_PrefabParentObject: {fileID: 0}
  m_PrefabInternal: {fileID: 100100000}
  serializedVersion: 5
  m_Component:
  - component: {fileID: 4052857304208694}
  - component: {fileID: 114346060232018566}
  m_Layer: 0
  m_Name: ScripTale
  m_TagString: Untagged
  m_Icon: {fileID: 2800000, guid: 2274b803d84c37445a2179c044b37079, type: 3}
  m_NavMeshLayer: 0
  m_StaticEditorFlags: 0
  m_IsActive: 1
--- !u!4 &4052857304208694
Transform:
  m_ObjectHideFlags: 1
  m_PrefabParentObject: {fileID: 0}
  m_PrefabInternal: {fileID: 100100000}
  m_GameObject: {fileID: 1516453202568754}
  m_LocalRotation: {x: 0, y: 0, z: 0, w: 1}
  m_LocalPosition: {x: 0, y: 0, z: 0}
  m_LocalScale: {x: 1, y: 1, z: 1}
  m_Children: []
  m_Father: {fileID: 0}
  m_RootOrder: 0
  m_LocalEulerAnglesHint: {x: 0, y: 0, z: 0}
--- !u!114 &114346060232018566
MonoBehaviour:
  m_ObjectHideFlags: 1
  m_PrefabParentObject: {fileID: 0}
  m_PrefabInternal: {fileID: 100100000}
  m_GameObject: {fileID: 1516453202568754}
  m_Enabled: 1
  m_EditorHideFlags: 0
  m_Script: {fileID: 11500000, guid: a763b8e1cc7b68d4d97d65429d32b5a3, type: 3}
  m_Name: 
  m_EditorClassIdentifier: 
  sTale_inspector: 0
  statesFile: {fileID: 102900000, guid: 79f7b7fba06cdb64bac1b51623b6bfd3, type: 3}
  relationshipsFile: {fileID: 102900000, guid: e5c08ec143bd14149bd7000f76580434, type: 3}
  dialogueImporter: {fileID: 0}
